Zamit,Springview,Bobrowice,31,Poland,https://dmoz.org,683-508-5485
Holdlamis,Village,Zhongwei,9,China,http://weebly.com,934-583-6713
Zaam-Dox,Tennyson,Maigo,95,Philippines,http://constantcontact.com,469-277-9195
Otcom,Grim,Sampués,08,Colombia,https://alibaba.com,712-274-8179
Duobam,Thierer,San Nicolas,9808,Philippines,http://newyorker.com,201-116-9037
Bamity,Fairfield,Viļaka,6,Latvia,https://soundcloud.com,882-498-0337
Zaam-Dox,Grayhawk,Oslo,0,Norway,https://artisteer.com,172-446-5955
Bitwolf,Jenifer,Sangumata,2,Indonesia,http://google.com,960-910-3030
Flowdesk,Toban,Midland,3,United States,https://eepurl.com,989-298-1025
Andalax,Anderson,Gaoqiu,047,China,http://bluehost.com,484-966-1234
Andalax,Blaine,Non Sila,34643,Thailand,http://home.pl,424-522-9924
Overhold,Barby,Pembuanghulu,33,Indonesia,http://washington.edu,299-575-7696
Andalax,Porter,Mbumi,63,Tanzania,https://yahoo.co.jp,245-924-8376
Bamity,Bartelt,Kongtian,8,China,https://sun.com,377-545-7678
Opela,Harbort,Margate,99181,South Africa,http://blogspot.com,178-821-6570
Cookley,Springs,Rosignol,227,Guyana,http://vk.com,565-365-1313
Span,Cambridge,Tiadiaye,75736,Senegal,https://flickr.com,368-988-5534
Tempsoft,Monument,Businga,4514,Democratic Republic of the Congo,http://pagesperso-orange.fr,305-650-8507
Alpha,Stoughton,Karangwungu Lor,0,Indonesia,https://about.com,785-756-7499
Stim,Cody,Parakanhonje Wetan,2324,Indonesia,https://earthlink.net,997-614-9688