ncharrier0@unc.edu,Nicol,Charrier,Panama,Cusapín,4398,Shelley,IJJQy7CWGRk,F,1000
favrahamy1@pcworld.com,Frankie,Avrahamy,Sweden,Göteborg,915,Daystar,eNTT1wiaJq,M,1000
elammie2@craigslist.org,Ewell,Lammie,Colombia,Cerrito,10,Oneill,IAUzdZP9c6t,M,1000
dbenedicte3@nasa.gov,Dennis,Benedicte,Canada,Concord,6,Fremont,yvONfTgmmc,M,1000
bgeorgi4@usgs.gov,Berta,Georgi,Indonesia,Kedawung,88,Johnson,uH3RzxIpOy,F,1000
gharesnape5@rediff.com,Gabey,Haresnape,Indonesia,Luthu,18,Bluejay,lx2YrmJ30cCP,F,1000
rschoular6@sakura.ne.jp,Roobbie,Schoular,Yemen,Al Qaţn,142,Ronald Regan,vsWCp0LPnBL,F,1000
mfeatherstonehaugh7@blogtalkradio.com,Minerva,Featherstonehaugh,China,Henglan,1166,Prairie Rose,rb4QAd1,F,1000
lfullerlove8@pagesperso-orange.fr,Lona,Fullerlove,Peru,Aricapampa,2,Graedel,CItSk9mqnMx,F,1000
rlicas9@dropbox.com,Rurik,Licas,Mexico,San Rafael,290,Jana,cGB8cv5dsgp,M,1000
mgodinga@marriott.com,Maggy,Goding,Papua New Guinea,Kerema,8644,Lake View,M3TUG50,F,1000
mcurneenb@hatena.ne.jp,Mela,Curneen,Czech Republic,Šestajovice,51,Rieder,HCAIICq,F,1000
benderlec@tumblr.com,Breena,Enderle,Azerbaijan,Dondar Quşçu,7,Homewood,rf0YNvFfdl6,F,1000
trashleighd@bbb.org,Tripp,Rashleigh,Kenya,Kabarnet,43655,Fairview,tqSnF0t,M,1000
pcasese@163.com,Pam,Cases,Guatemala,Tecpán Guatemala,460,La Follette,JNcFbpr8,F,1000
hcarvillef@go.com,Hort,Carville,China,Liangshan,67,Manley,pyy9XaNxNUnA,M,1000
aofihilyg@ezinearticles.com,Asa,O'Fihily,China,Xinzhan,5,Nevada,OQDKi6zzRvN,M,1000
hscoularh@usa.gov,Horten,Scoular,Palau,Kloulklubed,360,Buhler,TPNvrl,M,1000
mkeatchi@weibo.com,Mariel,Keatch,Slovenia,Lendava,50491,Valley Edge,9yRZdE,F,1000
itrundlerj@livejournal.com,Isidro,Trundler,Czech Republic,Doubrava,2,Raven,WKcHFoGq0FR,M,1000
vchismank@tinyurl.com,Vasilis,Chisman,Thailand,Pathum Thani,369,Ilene,f0VVXqWCe,M,1000
pjeenesl@sciencedirect.com,Patti,Jeenes,Indonesia,Klagen,24307,Mitchell,aHvf9WU,F,1000
sattriem@aol.com,Sayers,Attrie,China,Huaqiao,13,Hanover,BDtLb2Xhw,M,1000
hjeryn@blog.com,Herta,Jery,Colombia,Cartagena del Chairá,7,Caliangt,d48C52VDm,F,1000
hsantelloo@spotify.com,Hamilton,Santello,China,Sanhe,55,American Ash,Kw43vsh,M,1000
rfloyedp@multiply.com,Rutledge,Floyed,Ireland,Sutton,3300,Harbort,vyup14,M,1000
ckinnairdq@wsj.com,Christean,Kinnaird,Brazil,Guaíra,355,Shelley,1KgnxM,F,1000
snovotnir@sun.com,Shelba,Novotni,Thailand,Non Sang,48965,Gina,3yS5CRBy,F,1000
leckhards@google.com.au,Luce,Eckhard,Latvia,Dagda,0664,Loomis,eZeyjB,M,1000
mspurgeont@hatena.ne.jp,Micheil,Spurgeon,Morocco,Mhamid,2216,Cherokee,kYWBsm52R,M,1000